module gitlab.com/pierredittgen/gomoddep

go 1.18

require (
	github.com/spf13/cobra v1.5.0
	golang.org/x/mod v0.5.1
)

require (
	github.com/inconshreveable/mousetrap v1.0.0 // indirect
	github.com/spf13/pflag v1.0.5 // indirect
	golang.org/x/xerrors v0.0.0-20191011141410-1b5146add898 // indirect
)
